<mxfile host="app.diagrams.net" modified="2023-04-14T05:03:09.561Z" agent="Mozilla/5.0 (Windows NT 10.0; Win64; x64) AppleWebKit/537.36 (KHTML, like Gecko) Chrome/111.0.0.0 Safari/537.36" etag="0cVwb_-MQqZAeLMbAeTi" version="21.1.6" type="gitlab">
  <diagram name="Page-1" id="03018318-947c-dd8e-b7a3-06fadd420f32">
    <mxGraphModel dx="3000" dy="1769" grid="1" gridSize="10" guides="1" tooltips="1" connect="1" arrows="1" fold="1" page="1" pageScale="1" pageWidth="1100" pageHeight="850" background="none" math="0" shadow="0">
      <root>
        <mxCell id="0" />
        <mxCell id="1" parent="0" />
        <mxCell id="677b7b8949515195-1" value="" style="whiteSpace=wrap;html=1;rounded=0;shadow=0;labelBackgroundColor=none;strokeColor=#000000;strokeWidth=1;fillColor=none;fontFamily=Verdana;fontSize=12;fontColor=#000000;align=center;comic=1;" parent="1" vertex="1">
          <mxGeometry x="20" y="20" width="1060" height="810" as="geometry" />
        </mxCell>
        <mxCell id="677b7b8949515195-2" value="ALL NEWS" style="whiteSpace=wrap;html=1;rounded=0;shadow=0;labelBackgroundColor=none;strokeWidth=1;fontFamily=Verdana;fontSize=28;align=center;comic=1;" parent="1" vertex="1">
          <mxGeometry x="40" y="60" width="190" height="50" as="geometry" />
        </mxCell>
        <mxCell id="677b7b8949515195-9" value="" style="line;strokeWidth=1;html=1;rounded=0;shadow=0;labelBackgroundColor=none;fillColor=none;fontFamily=Verdana;fontSize=14;fontColor=#000000;align=center;comic=1;" parent="1" vertex="1">
          <mxGeometry x="20" y="140" width="1060" height="10" as="geometry" />
        </mxCell>
        <mxCell id="677b7b8949515195-27" value="" style="text;html=1;points=[];align=left;verticalAlign=top;spacingTop=-4;fontSize=14;fontFamily=Verdana" parent="1" vertex="1">
          <mxGeometry x="40" y="290" width="170" height="20" as="geometry" />
        </mxCell>
        <mxCell id="VKJo3IuVslEEWNIWa97k-3" value="LOGO" style="whiteSpace=wrap;html=1;rounded=0;shadow=0;labelBackgroundColor=none;strokeWidth=1;fontFamily=Verdana;fontSize=28;align=center;comic=1;" vertex="1" parent="1">
          <mxGeometry x="310" y="60" width="190" height="50" as="geometry" />
        </mxCell>
        <mxCell id="VKJo3IuVslEEWNIWa97k-4" value="LOGIN" style="whiteSpace=wrap;html=1;rounded=0;shadow=0;labelBackgroundColor=none;strokeWidth=1;fontFamily=Verdana;fontSize=28;align=center;comic=1;" vertex="1" parent="1">
          <mxGeometry x="710" y="60" width="163" height="50" as="geometry" />
        </mxCell>
        <mxCell id="VKJo3IuVslEEWNIWa97k-5" value="SIGN UP" style="whiteSpace=wrap;html=1;rounded=0;shadow=0;labelBackgroundColor=none;strokeWidth=1;fontFamily=Verdana;fontSize=28;align=center;comic=1;" vertex="1" parent="1">
          <mxGeometry x="900" y="60" width="160" height="50" as="geometry" />
        </mxCell>
        <mxCell id="VKJo3IuVslEEWNIWa97k-21" value="" style="whiteSpace=wrap;html=1;aspect=fixed;gradientColor=none;" vertex="1" parent="1">
          <mxGeometry x="120" y="230" width="270" height="270" as="geometry" />
        </mxCell>
        <mxCell id="VKJo3IuVslEEWNIWa97k-22" value="" style="whiteSpace=wrap;html=1;aspect=fixed;gradientColor=none;" vertex="1" parent="1">
          <mxGeometry x="440" y="230" width="270" height="270" as="geometry" />
        </mxCell>
        <mxCell id="VKJo3IuVslEEWNIWa97k-23" value="" style="whiteSpace=wrap;html=1;aspect=fixed;gradientColor=none;" vertex="1" parent="1">
          <mxGeometry x="770" y="230" width="270" height="270" as="geometry" />
        </mxCell>
        <mxCell id="VKJo3IuVslEEWNIWa97k-24" value="NEWS" style="rounded=0;whiteSpace=wrap;html=1;" vertex="1" parent="1">
          <mxGeometry x="220" y="300" width="120" height="30" as="geometry" />
        </mxCell>
        <mxCell id="VKJo3IuVslEEWNIWa97k-25" value="DETAILS" style="rounded=0;whiteSpace=wrap;html=1;" vertex="1" parent="1">
          <mxGeometry x="470" y="450" width="120" height="35" as="geometry" />
        </mxCell>
        <mxCell id="VKJo3IuVslEEWNIWa97k-26" value="NEWS" style="rounded=0;whiteSpace=wrap;html=1;" vertex="1" parent="1">
          <mxGeometry x="580" y="300" width="120" height="30" as="geometry" />
        </mxCell>
        <mxCell id="VKJo3IuVslEEWNIWa97k-27" value="DETAILS" style="rounded=0;whiteSpace=wrap;html=1;" vertex="1" parent="1">
          <mxGeometry x="140" y="450" width="120" height="35" as="geometry" />
        </mxCell>
        <mxCell id="VKJo3IuVslEEWNIWa97k-28" style="edgeStyle=orthogonalEdgeStyle;rounded=0;orthogonalLoop=1;jettySize=auto;html=1;exitX=0.5;exitY=1;exitDx=0;exitDy=0;" edge="1" parent="1" source="VKJo3IuVslEEWNIWa97k-24" target="VKJo3IuVslEEWNIWa97k-24">
          <mxGeometry relative="1" as="geometry" />
        </mxCell>
        <mxCell id="VKJo3IuVslEEWNIWa97k-29" value="DETAI;S" style="rounded=0;whiteSpace=wrap;html=1;" vertex="1" parent="1">
          <mxGeometry x="800" y="440" width="120" height="30" as="geometry" />
        </mxCell>
        <mxCell id="VKJo3IuVslEEWNIWa97k-30" value="NEWS" style="rounded=0;whiteSpace=wrap;html=1;" vertex="1" parent="1">
          <mxGeometry x="910" y="300" width="120" height="30" as="geometry" />
        </mxCell>
        <mxCell id="VKJo3IuVslEEWNIWa97k-33" value="" style="endArrow=none;html=1;rounded=0;" edge="1" parent="1" target="677b7b8949515195-1">
          <mxGeometry width="50" height="50" relative="1" as="geometry">
            <mxPoint x="20" y="720" as="sourcePoint" />
            <mxPoint x="70" y="670" as="targetPoint" />
          </mxGeometry>
        </mxCell>
        <mxCell id="VKJo3IuVslEEWNIWa97k-35" value="" style="endArrow=none;html=1;rounded=0;entryX=-0.001;entryY=0.858;entryDx=0;entryDy=0;entryPerimeter=0;exitX=1;exitY=0.864;exitDx=0;exitDy=0;exitPerimeter=0;" edge="1" parent="1" source="677b7b8949515195-1" target="677b7b8949515195-1">
          <mxGeometry width="50" height="50" relative="1" as="geometry">
            <mxPoint x="530" y="560" as="sourcePoint" />
            <mxPoint x="580" y="510" as="targetPoint" />
            <Array as="points">
              <mxPoint x="560" y="715" />
              <mxPoint x="280" y="720" />
            </Array>
          </mxGeometry>
        </mxCell>
        <mxCell id="VKJo3IuVslEEWNIWa97k-39" value="LOGO" style="rounded=0;whiteSpace=wrap;html=1;" vertex="1" parent="1">
          <mxGeometry x="60" y="750" width="70" height="30" as="geometry" />
        </mxCell>
        <mxCell id="VKJo3IuVslEEWNIWa97k-41" value="Agile Software Management System" style="shape=rectangle;strokeColor=none;fillColor=none;linkText=;fontSize=17;fontColor=#808080;fontStyle=0;html=1;align=center;" vertex="1" parent="1">
          <mxGeometry x="60" y="790" width="260" height="30" as="geometry" />
        </mxCell>
        <mxCell id="VKJo3IuVslEEWNIWa97k-43" value="c E-pharmacist, Spring Semester ,2023" style="shape=rectangle;strokeColor=none;fillColor=none;linkText=;fontSize=17;fontColor=#808080;fontStyle=0;html=1;align=center;" vertex="1" parent="1">
          <mxGeometry x="775" y="780" width="260" height="30" as="geometry" />
        </mxCell>
        <mxCell id="VKJo3IuVslEEWNIWa97k-45" value="" style="whiteSpace=wrap;html=1;rounded=0;shadow=0;labelBackgroundColor=none;strokeColor=#000000;strokeWidth=1;fillColor=none;fontFamily=Verdana;fontSize=12;fontColor=#000000;align=center;comic=1;" vertex="1" parent="1">
          <mxGeometry x="20" y="860" width="1060" height="810" as="geometry" />
        </mxCell>
        <mxCell id="VKJo3IuVslEEWNIWa97k-46" value="" style="line;strokeWidth=1;html=1;rounded=0;shadow=0;labelBackgroundColor=none;fillColor=none;fontFamily=Verdana;fontSize=14;fontColor=#000000;align=center;comic=1;" vertex="1" parent="1">
          <mxGeometry x="10" y="950" width="1060" height="10" as="geometry" />
        </mxCell>
        <mxCell id="VKJo3IuVslEEWNIWa97k-47" value="ALL NEWS" style="whiteSpace=wrap;html=1;rounded=0;shadow=0;labelBackgroundColor=none;strokeWidth=1;fontFamily=Verdana;fontSize=28;align=center;comic=1;" vertex="1" parent="1">
          <mxGeometry x="50" y="880" width="190" height="50" as="geometry" />
        </mxCell>
        <mxCell id="VKJo3IuVslEEWNIWa97k-48" value="LOGO" style="whiteSpace=wrap;html=1;rounded=0;shadow=0;labelBackgroundColor=none;strokeWidth=1;fontFamily=Verdana;fontSize=28;align=center;comic=1;" vertex="1" parent="1">
          <mxGeometry x="873" y="880" width="190" height="50" as="geometry" />
        </mxCell>
        <mxCell id="VKJo3IuVslEEWNIWa97k-49" value="" style="endArrow=none;html=1;rounded=0;entryX=-0.001;entryY=0.858;entryDx=0;entryDy=0;entryPerimeter=0;exitX=1;exitY=0.864;exitDx=0;exitDy=0;exitPerimeter=0;" edge="1" parent="1">
          <mxGeometry width="50" height="50" relative="1" as="geometry">
            <mxPoint x="1081" y="1565" as="sourcePoint" />
            <mxPoint x="20" y="1560" as="targetPoint" />
            <Array as="points">
              <mxPoint x="561" y="1560" />
              <mxPoint x="281" y="1565" />
            </Array>
          </mxGeometry>
        </mxCell>
        <mxCell id="VKJo3IuVslEEWNIWa97k-50" value="LOGO" style="rounded=0;whiteSpace=wrap;html=1;" vertex="1" parent="1">
          <mxGeometry x="60" y="1580" width="70" height="30" as="geometry" />
        </mxCell>
        <mxCell id="VKJo3IuVslEEWNIWa97k-51" value="Agile Software Management System" style="shape=rectangle;strokeColor=none;fillColor=none;linkText=;fontSize=17;fontColor=#808080;fontStyle=0;html=1;align=center;" vertex="1" parent="1">
          <mxGeometry x="50" y="1630" width="260" height="30" as="geometry" />
        </mxCell>
        <mxCell id="VKJo3IuVslEEWNIWa97k-52" value="c E-pharmacist, Spring Semester ,2023" style="shape=rectangle;strokeColor=none;fillColor=none;linkText=;fontSize=17;fontColor=#808080;fontStyle=0;html=1;align=center;" vertex="1" parent="1">
          <mxGeometry x="790" y="1610" width="260" height="30" as="geometry" />
        </mxCell>
        <mxCell id="VKJo3IuVslEEWNIWa97k-59" value="" style="whiteSpace=wrap;html=1;aspect=fixed;" vertex="1" parent="1">
          <mxGeometry x="340" y="1040" width="310" height="310" as="geometry" />
        </mxCell>
        <mxCell id="VKJo3IuVslEEWNIWa97k-61" value="" style="rounded=0;whiteSpace=wrap;html=1;" vertex="1" parent="1">
          <mxGeometry x="360" y="1150" width="240" height="20" as="geometry" />
        </mxCell>
        <mxCell id="VKJo3IuVslEEWNIWa97k-63" value="" style="rounded=0;whiteSpace=wrap;html=1;" vertex="1" parent="1">
          <mxGeometry x="360" y="1210" width="240" height="20" as="geometry" />
        </mxCell>
        <mxCell id="VKJo3IuVslEEWNIWa97k-64" value="&lt;span style=&quot;background-color: rgb(255, 255, 255);&quot;&gt;LOGIN&lt;/span&gt;" style="rounded=0;whiteSpace=wrap;html=1;labelBackgroundColor=#007FFF;labelBorderColor=none;" vertex="1" parent="1">
          <mxGeometry x="360" y="1300" width="110" height="30" as="geometry" />
        </mxCell>
        <mxCell id="VKJo3IuVslEEWNIWa97k-65" value="&lt;font color=&quot;#000000&quot;&gt;&lt;u&gt;LOG IN TO YOUR ACCOUNT&lt;/u&gt;&lt;/font&gt;" style="shape=rectangle;strokeColor=none;fillColor=none;linkText=;fontSize=17;fontColor=#808080;fontStyle=1;html=1;align=center;" vertex="1" parent="1">
          <mxGeometry x="360" y="1070" width="260" height="30" as="geometry" />
        </mxCell>
        <mxCell id="VKJo3IuVslEEWNIWa97k-66" value="&lt;font color=&quot;#000000&quot;&gt;Email Address&lt;/font&gt;" style="shape=rectangle;strokeColor=none;fillColor=none;linkText=;fontSize=17;fontColor=#808080;fontStyle=1;html=1;align=center;" vertex="1" parent="1">
          <mxGeometry x="290" y="1130" width="260" height="30" as="geometry" />
        </mxCell>
        <mxCell id="VKJo3IuVslEEWNIWa97k-67" value="&lt;font color=&quot;#000000&quot;&gt;Password&lt;/font&gt;" style="shape=rectangle;strokeColor=none;fillColor=none;linkText=;fontSize=17;fontColor=#808080;fontStyle=1;html=1;align=center;" vertex="1" parent="1">
          <mxGeometry x="270" y="1190" width="260" height="30" as="geometry" />
        </mxCell>
        <mxCell id="VKJo3IuVslEEWNIWa97k-68" value="" style="whiteSpace=wrap;html=1;rounded=0;shadow=0;labelBackgroundColor=none;strokeColor=#000000;strokeWidth=1;fillColor=none;fontFamily=Verdana;fontSize=12;fontColor=#000000;align=center;comic=1;" vertex="1" parent="1">
          <mxGeometry x="20" y="1710" width="1060" height="810" as="geometry" />
        </mxCell>
        <mxCell id="VKJo3IuVslEEWNIWa97k-69" value="ALL NEWS" style="whiteSpace=wrap;html=1;rounded=0;shadow=0;labelBackgroundColor=none;strokeWidth=1;fontFamily=Verdana;fontSize=28;align=center;comic=1;" vertex="1" parent="1">
          <mxGeometry x="60" y="1740" width="190" height="50" as="geometry" />
        </mxCell>
        <mxCell id="VKJo3IuVslEEWNIWa97k-70" value="LOGO" style="whiteSpace=wrap;html=1;rounded=0;shadow=0;labelBackgroundColor=none;strokeWidth=1;fontFamily=Verdana;fontSize=28;align=center;comic=1;" vertex="1" parent="1">
          <mxGeometry x="860" y="1740" width="190" height="50" as="geometry" />
        </mxCell>
        <mxCell id="VKJo3IuVslEEWNIWa97k-71" value="" style="line;strokeWidth=1;html=1;rounded=0;shadow=0;labelBackgroundColor=none;fillColor=none;fontFamily=Verdana;fontSize=14;fontColor=#000000;align=center;comic=1;" vertex="1" parent="1">
          <mxGeometry x="30" y="1820" width="1060" height="10" as="geometry" />
        </mxCell>
        <mxCell id="VKJo3IuVslEEWNIWa97k-72" value="" style="line;strokeWidth=1;html=1;rounded=0;shadow=0;labelBackgroundColor=none;fillColor=none;fontFamily=Verdana;fontSize=14;fontColor=#000000;align=center;comic=1;" vertex="1" parent="1">
          <mxGeometry x="20" y="2430" width="1060" height="10" as="geometry" />
        </mxCell>
        <mxCell id="VKJo3IuVslEEWNIWa97k-73" value="LOGO" style="rounded=0;whiteSpace=wrap;html=1;" vertex="1" parent="1">
          <mxGeometry x="40" y="2450" width="70" height="30" as="geometry" />
        </mxCell>
        <mxCell id="VKJo3IuVslEEWNIWa97k-74" value="Agile Software Management System" style="shape=rectangle;strokeColor=none;fillColor=none;linkText=;fontSize=17;fontColor=#808080;fontStyle=0;html=1;align=center;" vertex="1" parent="1">
          <mxGeometry x="40" y="2490" width="260" height="30" as="geometry" />
        </mxCell>
        <mxCell id="VKJo3IuVslEEWNIWa97k-75" value="c E-pharmacist, Spring Semester ,2023" style="shape=rectangle;strokeColor=none;fillColor=none;linkText=;fontSize=17;fontColor=#808080;fontStyle=0;html=1;align=center;" vertex="1" parent="1">
          <mxGeometry x="790" y="2470" width="260" height="30" as="geometry" />
        </mxCell>
        <mxCell id="VKJo3IuVslEEWNIWa97k-76" value="" style="whiteSpace=wrap;html=1;aspect=fixed;" vertex="1" parent="1">
          <mxGeometry x="370" y="1870" width="470" height="470" as="geometry" />
        </mxCell>
        <mxCell id="VKJo3IuVslEEWNIWa97k-77" value="&lt;font color=&quot;#000000&quot;&gt;Name&lt;/font&gt;" style="shape=rectangle;strokeColor=none;fillColor=none;linkText=;fontSize=17;fontColor=#808080;fontStyle=1;html=1;align=center;" vertex="1" parent="1">
          <mxGeometry x="275" y="1930" width="260" height="30" as="geometry" />
        </mxCell>
        <mxCell id="VKJo3IuVslEEWNIWa97k-78" value="&lt;font color=&quot;#000000&quot;&gt;&lt;u&gt;CREATE A NEW ACCOUNT&lt;/u&gt;&lt;/font&gt;" style="shape=rectangle;strokeColor=none;fillColor=none;linkText=;fontSize=17;fontColor=#808080;fontStyle=1;html=1;align=center;" vertex="1" parent="1">
          <mxGeometry x="395" y="1880" width="260" height="30" as="geometry" />
        </mxCell>
        <mxCell id="VKJo3IuVslEEWNIWa97k-79" value="" style="rounded=0;whiteSpace=wrap;html=1;" vertex="1" parent="1">
          <mxGeometry x="380" y="1950" width="240" height="20" as="geometry" />
        </mxCell>
        <mxCell id="VKJo3IuVslEEWNIWa97k-80" value="&lt;font color=&quot;#000000&quot;&gt;Email address&lt;/font&gt;" style="shape=rectangle;strokeColor=none;fillColor=none;linkText=;fontSize=17;fontColor=#808080;fontStyle=1;html=1;align=center;" vertex="1" parent="1">
          <mxGeometry x="310" y="1990" width="260" height="30" as="geometry" />
        </mxCell>
        <mxCell id="VKJo3IuVslEEWNIWa97k-81" value="" style="rounded=0;whiteSpace=wrap;html=1;" vertex="1" parent="1">
          <mxGeometry x="380" y="2015" width="240" height="20" as="geometry" />
        </mxCell>
        <mxCell id="VKJo3IuVslEEWNIWa97k-82" value="&lt;font color=&quot;#000000&quot;&gt;Password&lt;/font&gt;" style="shape=rectangle;strokeColor=none;fillColor=none;linkText=;fontSize=17;fontColor=#808080;fontStyle=1;html=1;align=center;" vertex="1" parent="1">
          <mxGeometry x="300" y="2050" width="260" height="30" as="geometry" />
        </mxCell>
        <mxCell id="VKJo3IuVslEEWNIWa97k-84" style="edgeStyle=orthogonalEdgeStyle;rounded=0;orthogonalLoop=1;jettySize=auto;html=1;exitX=0.5;exitY=1;exitDx=0;exitDy=0;" edge="1" parent="1" source="VKJo3IuVslEEWNIWa97k-82" target="VKJo3IuVslEEWNIWa97k-82">
          <mxGeometry relative="1" as="geometry" />
        </mxCell>
        <mxCell id="VKJo3IuVslEEWNIWa97k-85" value="" style="rounded=0;whiteSpace=wrap;html=1;" vertex="1" parent="1">
          <mxGeometry x="380" y="2080" width="240" height="20" as="geometry" />
        </mxCell>
        <mxCell id="VKJo3IuVslEEWNIWa97k-86" value="&lt;font color=&quot;#000000&quot;&gt;Confirm Password&lt;/font&gt;" style="shape=rectangle;strokeColor=none;fillColor=none;linkText=;fontSize=17;fontColor=#808080;fontStyle=1;html=1;align=center;" vertex="1" parent="1">
          <mxGeometry x="330" y="2120" width="260" height="30" as="geometry" />
        </mxCell>
        <mxCell id="VKJo3IuVslEEWNIWa97k-87" value="" style="rounded=0;whiteSpace=wrap;html=1;" vertex="1" parent="1">
          <mxGeometry x="390" y="2150" width="240" height="20" as="geometry" />
        </mxCell>
        <mxCell id="VKJo3IuVslEEWNIWa97k-88" value="&lt;font color=&quot;#000000&quot;&gt;Role&lt;/font&gt;" style="shape=rectangle;strokeColor=none;fillColor=none;linkText=;fontSize=17;fontColor=#808080;fontStyle=1;html=1;align=center;" vertex="1" parent="1">
          <mxGeometry x="275" y="2190" width="260" height="30" as="geometry" />
        </mxCell>
        <mxCell id="VKJo3IuVslEEWNIWa97k-89" value="&lt;span style=&quot;background-color: rgb(255, 255, 255);&quot;&gt;SIGN UP&lt;/span&gt;" style="rounded=0;whiteSpace=wrap;html=1;labelBackgroundColor=#007FFF;labelBorderColor=none;" vertex="1" parent="1">
          <mxGeometry x="390" y="2280" width="110" height="30" as="geometry" />
        </mxCell>
        <mxCell id="VKJo3IuVslEEWNIWa97k-90" value="" style="ellipse;whiteSpace=wrap;html=1;aspect=fixed;labelBackgroundColor=#A1A1A1;" vertex="1" parent="1">
          <mxGeometry x="390" y="2230" width="20" height="20" as="geometry" />
        </mxCell>
        <mxCell id="VKJo3IuVslEEWNIWa97k-91" value="" style="ellipse;whiteSpace=wrap;html=1;aspect=fixed;labelBackgroundColor=#A1A1A1;" vertex="1" parent="1">
          <mxGeometry x="470" y="2230" width="20" height="20" as="geometry" />
        </mxCell>
        <mxCell id="VKJo3IuVslEEWNIWa97k-92" value="" style="ellipse;whiteSpace=wrap;html=1;aspect=fixed;labelBackgroundColor=#A1A1A1;" vertex="1" parent="1">
          <mxGeometry x="667.5" y="2230" width="20" height="20" as="geometry" />
        </mxCell>
        <mxCell id="VKJo3IuVslEEWNIWa97k-95" value="User" style="shape=rectangle;strokeColor=none;fillColor=none;linkText=;fontSize=17;fontColor=#808080;fontStyle=0;html=1;align=center;" vertex="1" parent="1">
          <mxGeometry x="300" y="2225" width="260" height="30" as="geometry" />
        </mxCell>
        <mxCell id="VKJo3IuVslEEWNIWa97k-96" value="Subject Matter Expert" style="shape=rectangle;strokeColor=none;fillColor=none;linkText=;fontSize=17;fontColor=#808080;fontStyle=0;html=1;align=center;" vertex="1" parent="1">
          <mxGeometry x="462.5" y="2225" width="225" height="30" as="geometry" />
        </mxCell>
        <mxCell id="VKJo3IuVslEEWNIWa97k-106" value="Pharmacist" style="shape=rectangle;strokeColor=none;fillColor=none;linkText=;fontSize=17;fontColor=#808080;fontStyle=0;html=1;align=center;" vertex="1" parent="1">
          <mxGeometry x="600" y="2225" width="260" height="30" as="geometry" />
        </mxCell>
      </root>
    </mxGraphModel>
  </diagram>
</mxfile>
